…
``` r
weather_nest_df = 
weather_df%>%
  nest(data = date:tmin)
```

Really a list column!

``` r
weather_nest_df[["data"]]
```

    ## [[1]]
    ## # A tibble: 365 × 4
    ##    date        prcp  tmax  tmin
    ##    <date>     <dbl> <dbl> <dbl>
    ##  1 2017-01-01     0   8.9   4.4
    ##  2 2017-01-02    53   5     2.8
    ##  3 2017-01-03   147   6.1   3.9
    ##  4 2017-01-04     0  11.1   1.1
    ##  5 2017-01-05     0   1.1  -2.7
    ##  6 2017-01-06    13   0.6  -3.8
    ##  7 2017-01-07    81  -3.2  -6.6
    ##  8 2017-01-08     0  -3.8  -8.8
    ##  9 2017-01-09     0  -4.9  -9.9
    ## 10 2017-01-10     0   7.8  -6  
    ## # … with 355 more rows
    ## 
    ## [[2]]
    ## # A tibble: 365 × 4
    ##    date        prcp  tmax  tmin
    ##    <date>     <dbl> <dbl> <dbl>
    ##  1 2017-01-01     0  26.7  16.7
    ##  2 2017-01-02     0  27.2  16.7
    ##  3 2017-01-03     0  27.8  17.2
    ##  4 2017-01-04     0  27.2  16.7
    ##  5 2017-01-05     0  27.8  16.7
    ##  6 2017-01-06     0  27.2  16.7
    ##  7 2017-01-07     0  27.2  16.7
    ##  8 2017-01-08     0  25.6  15  
    ##  9 2017-01-09     0  27.2  15.6
    ## 10 2017-01-10     0  28.3  17.2
    ## # … with 355 more rows
    ## 
    ## [[3]]
    ## # A tibble: 365 × 4
    ##    date        prcp  tmax  tmin
    ##    <date>     <dbl> <dbl> <dbl>
    ##  1 2017-01-01   432  -6.8 -10.7
    ##  2 2017-01-02    25 -10.5 -12.4
    ##  3 2017-01-03     0  -8.9 -15.9
    ##  4 2017-01-04     0  -9.9 -15.5
    ##  5 2017-01-05     0  -5.9 -14.2
    ##  6 2017-01-06     0  -4.4 -11.3
    ##  7 2017-01-07    51   0.6 -11.5
    ##  8 2017-01-08    76   2.3  -1.2
    ##  9 2017-01-09    51  -1.2  -7  
    ## 10 2017-01-10     0  -5   -14.2
    ## # … with 355 more rows

``` r
weather_nest_df[["data"]][[1]]
```

    ## # A tibble: 365 × 4
    ##    date        prcp  tmax  tmin
    ##    <date>     <dbl> <dbl> <dbl>
    ##  1 2017-01-01     0   8.9   4.4
    ##  2 2017-01-02    53   5     2.8
    ##  3 2017-01-03   147   6.1   3.9
    ##  4 2017-01-04     0  11.1   1.1
    ##  5 2017-01-05     0   1.1  -2.7
    ##  6 2017-01-06    13   0.6  -3.8
    ##  7 2017-01-07    81  -3.2  -6.6
    ##  8 2017-01-08     0  -3.8  -8.8
    ##  9 2017-01-09     0  -4.9  -9.9
    ## 10 2017-01-10     0   7.8  -6  
    ## # … with 355 more rows
…
    ## # A tibble: 3 × 4
    ##   name           id          data               model 
    ##   <chr>          <chr>       <list>             <list>
    ## 1 CentralPark_NY USW00094728 <tibble [365 × 4]> <lm>  
    ## 2 Waikiki_HA     USC00519397 <tibble [365 × 4]> <lm>  
    ## 3 Waterhole_WA   USS0023B17S <tibble [365 × 4]> <lm>

unnesting

``` r
weather_nest_df %>%
  unnest(data)
```

    ## # A tibble: 1,095 × 6
    ##    name           id          date        prcp  tmax  tmin
    ##    <chr>          <chr>       <date>     <dbl> <dbl> <dbl>
    ##  1 CentralPark_NY USW00094728 2017-01-01     0   8.9   4.4
    ##  2 CentralPark_NY USW00094728 2017-01-02    53   5     2.8
    ##  3 CentralPark_NY USW00094728 2017-01-03   147   6.1   3.9
    ##  4 CentralPark_NY USW00094728 2017-01-04     0  11.1   1.1
    ##  5 CentralPark_NY USW00094728 2017-01-05     0   1.1  -2.7
    ##  6 CentralPark_NY USW00094728 2017-01-06    13   0.6  -3.8
    ##  7 CentralPark_NY USW00094728 2017-01-07    81  -3.2  -6.6
    ##  8 CentralPark_NY USW00094728 2017-01-08     0  -3.8  -8.8
    ##  9 CentralPark_NY USW00094728 2017-01-09     0  -4.9  -9.9
    ## 10 CentralPark_NY USW00094728 2017-01-10     0   7.8  -6  
    ## # … with 1,085 more rows
…
vec_url = str_c(base_url,c(1,2,3,4,5))

dynamite_review = 
  bind_rows(
    read_page_reviews(vec_url[1]),
    read_page_reviews(vec_url[2]),
    read_page_reviews(vec_url[3]),
    read_page_reviews(vec_url[4]),
    read_page_reviews(vec_url[5])
)
dynamite_review
```

    ## # A tibble: 50 × 3
    ##    title                                      stars text                        
    ##    <chr>                                      <dbl> <chr>                       
    ##  1 Lol hey it’s Napoleon. What’s not to love…     5 Vote for Pedro              
    ##  2 Still the best                                 5 Completely stupid, absolute…
    ##  3 70’s and 80’s Schtick Comedy                   5 …especially funny if you ha…
    ##  4 Amazon Censorship                              5 I hope Amazon does not cens…
    ##  5 Watch to say you did                           3 I know it's supposed to be …
    ##  6 Best Movie Ever!                               5 We just love this movie and…
    ##  7 Quirky                                         5 Good family film            
    ##  8 Funny movie - can't play it !                  1 Sony 4k player won't even r…
    ##  9 A brilliant story about teenage life           5 Napoleon Dynamite delivers …
    ## 10 HUHYAH                                         5 Spicy                       
    ## # … with 40 more rows
…
napoleon_reviews %>%
  select(-page_url) %>%
  unnest(review)
```

    ## # A tibble: 50 × 4
    ##     page title                                      stars text                  
    ##    <int> <chr>                                      <dbl> <chr>                 
    ##  1     1 Lol hey it’s Napoleon. What’s not to love…     5 Vote for Pedro        
    ##  2     1 Still the best                                 5 Completely stupid, ab…
    ##  3     1 70’s and 80’s Schtick Comedy                   5 …especially funny if …
    ##  4     1 Amazon Censorship                              5 I hope Amazon does no…
    ##  5     1 Watch to say you did                           3 I know it's supposed …
    ##  6     1 Best Movie Ever!                               5 We just love this mov…
    ##  7     1 Quirky                                         5 Good family film      
    ##  8     1 Funny movie - can't play it !                  1 Sony 4k player won't …
    ##  9     1 A brilliant story about teenage life           5 Napoleon Dynamite del…
    ## 10     1 HUHYAH                                         5 Spicy                 
    ## # … with 40 more rows
